Text prediction via N-gram Stupid Back-off models • sbo
…
p <- load_predictor(t) # This is the same as 'p' created above

Objects of class sbo_predtable can be safely stored out of memory and loaded in other R sessions:

save(t)
# ... and, in another session:
load("t.rda")

Some details on kgram_freqs and sbo_predictor class objects

As the name suggests, objects of class kgram_freqs store the counts for each \(k\)-gram observed in the training corpus. These are the building block for any \(N\)-gram based language model, and indeed text prediction can be performed directly from the freqs object obtained above:

predict(freqs, "i love")
#> # A tibble: 1,001 x 2
#>    completion probability
#>    <chr>            <dbl>
#>  1 you             0.216 
#>  2 it              0.0626
#>  3 the             0.0541
#>  4 my              0.0482
#>  5 that            0.0406
#>  6 how             0.0372
#>  7 u               0.0347
#>  8 your            0.0279
#>  9 this            0.0211
#> 10 <EOS>           0.0135
#> # … with 991 more rows
…
library(dplyr) # installed with `sbo`

Once we have built our next-word predictor, we may want to directly test its predictions on an independent corpus. For this purpose, sbo offers the function eval_sbo_predictor, which performs the following test:

Sample a single \(N\)-gram from each sentence of test corpus.

Predict next words from the \((N-1)\)-gram prefix.

Return all predictions, together with the true word completions.

As a concrete example, we test the text-predictor trained in the previous section over the Twitter (independent) test set.

set.seed(840)
(evaluation <- eval_sbo_predictor(p, test)) # test <- sbo::twitter_test
#> # A tibble: 18,497 x 4
#>    input            true      preds[,1] [,2]  [,3]    correct
#>    <chr>            <chr>     <chr>     <chr> <chr>   <lgl>  
#>  1 "oh hey"         shirtless a         <EOS> i'm     FALSE  
#>  2 " "              how       i         <EOS> thanks  FALSE  
#>  3 " ah"            no        <EOS>     yes   i       FALSE  
#>  4 "he estudiado"   <EOS>     <EOS>     the   it      TRUE   
#>  5 "nada d"         <EOS>     <EOS>     from  project TRUE   
#>  6 "mama no"        esta      <EOS>     more  matter  FALSE  
#>  7 "ya mean"        <EOS>     <EOS>     to    i       TRUE   
#>  8 "tennis the"     scoring   word      same  best    FALSE  
#>  9 " thanks"        for       for       <EOS> to      TRUE   
#> 10 "concert wasn't" over      a         even  that    FALSE  
#> # … with 18,487 more rows
…
